{
    "license": "MIT",
    "native": false,
    "requirements": [],
    "source": "https://gitlab.com/FascinatedBox/lily-postgres",
    "summary": "Basic bindings for PostgreSQL.",
    "version": "v1.2.0"
}
